21

185 116
9
t 42 46 w
h 131 69 w
r 29 31 n
r 112 62 n
r 109 115 e
f 146 18 e
r 4 35 s
h 160 42 s
t 142 56 s
11 3

107 194
6
f 19 133 n
t 42 54 w
h 91 79 n
t 96 139 s
t 2 97 w
r 70 144 w
18 4

158 40
4
h 7 14 w
h 130 9 s
t 38 37 s
h 8 19 n
19 4

34 57
6
r 12 40 n
t 32 25 s
f 21 10 s
f 21 48 n
t 16 39 w
t 11 38 w
16 3

72 125
13
f 21 73 s
h 3 30 s
t 28 0 e
r 25 50 w
h 52 28 w
t 62 78 n
h 61 97 w
h 45 14 w
r 38 82 e
h 35 98 n
h 19 58 w
h 40 91 s
f 65 95 s
18 2

106 119
10
h 22 74 s
r 1 74 w
t 99 74 s
r 34 33 n
h 76 63 e
h 59 23 e
h 17 17 e
f 21 60 n
r 15 75 s
f 5 85 s
8 5

22 85
12
f 18 62 s
t 1 25 w
t 13 53 s
f 2 42 e
t 5 25 n
r 10 10 n
r 17 59 e
r 19 16 w
f 13 70 n
r 3 61 s
t 21 83 w
f 21 62 s
15 2

5 47
14
r 3 15 w
h 4 42 s
t 1 30 s
t 4 14 e
f 1 20 e
f 1 21 s
f 2 32 s
h 4 22 n
f 1 40 w
r 2 31 e
f 0 30 e
t 2 2 w
t 3 38 w
t 4 41 w
18 5

197 8
2
f 28 6 s
f 124 0 n
3 5

116 49
14
f 93 17 w
f 3 8 n
h 97 29 s
f 22 15 n
f 74 3 e
r 111 10 e
f 115 11 w
h 52 12 w
f 98 19 w
t 114 32 n
h 24 16 n
r 56 13 n
r 20 24 w
r 17 37 s
20 3

29 56
2
t 6 43 n
r 7 38 n
16 3

174 138
6
f 110 11 e
r 147 70 w
h 47 88 w
t 75 99 s
f 171 105 w
h 39 89 e
9 2

117 92
2
f 43 74 s
r 86 33 w
18 3

173 18
6
t 123 9 e
f 169 9 n
r 94 8 s
t 34 11 n
h 3 5 s
r 52 3 e
6 2

110 138
13
f 81 19 w
f 28 48 n
h 90 126 s
f 9 17 e
h 99 128 s
r 17 20 s
r 102 131 n
r 95 32 w
t 93 100 e
f 40 114 s
r 75 73 n
t 102 94 s
h 108 118 e
1 3

145 196
9
t 84 88 s
h 96 77 n
h 21 162 n
f 123 78 e
h 115 171 w
t 99 70 s
h 30 121 s
t 118 185 s
r 34 6 n
16 1

10 153
4
t 2 103 e
t 5 38 w
t 4 40 n
r 3 25 n
15 3

94 57
4
h 82 51 w
r 91 52 n
f 24 31 n
t 74 34 w
4 5

3 124
5
f 2 70 e
r 1 88 e
t 1 62 n
t 2 39 e
h 2 86 s
14 1

43 24
10
t 19 11 n
f 1 15 s
t 12 7 s
h 26 11 n
r 31 11 s
h 23 16 s
r 33 12 e
r 27 18 w
t 2 16 e
f 21 14 s
19 2

154 121
2
f 52 30 s
h 128 18 e
3 1
